…
``` r
NYC_transit = janitor::clean_names(NYC_transit)

NYC_transit
```

    ## # A tibble: 1,868 × 32
    ##    division line     statio…¹ stati…² stati…³ route1 route2 route3 route4 route5
    ##    <chr>    <chr>    <chr>      <dbl>   <dbl> <chr>  <chr>  <chr>  <chr>  <chr> 
    ##  1 BMT      4 Avenue 25th St     40.7   -74.0 R      <NA>   <NA>   <NA>   <NA>  
    ##  2 BMT      4 Avenue 25th St     40.7   -74.0 R      <NA>   <NA>   <NA>   <NA>  
    ##  3 BMT      4 Avenue 36th St     40.7   -74.0 N      R      <NA>   <NA>   <NA>  
    ##  4 BMT      4 Avenue 36th St     40.7   -74.0 N      R      <NA>   <NA>   <NA>  
    ##  5 BMT      4 Avenue 36th St     40.7   -74.0 N      R      <NA>   <NA>   <NA>  
    ##  6 BMT      4 Avenue 45th St     40.6   -74.0 R      <NA>   <NA>   <NA>   <NA>  
    ##  7 BMT      4 Avenue 45th St     40.6   -74.0 R      <NA>   <NA>   <NA>   <NA>  
    ##  8 BMT      4 Avenue 45th St     40.6   -74.0 R      <NA>   <NA>   <NA>   <NA>  
    ##  9 BMT      4 Avenue 45th St     40.6   -74.0 R      <NA>   <NA>   <NA>   <NA>  
    ## 10 BMT      4 Avenue 53rd St     40.6   -74.0 R      <NA>   <NA>   <NA>   <NA>  
    ## # … with 1,858 more rows, 22 more variables: route6 <chr>, route7 <chr>,
    ## #   route8 <dbl>, route9 <dbl>, route10 <dbl>, route11 <dbl>,
    ## #   entrance_type <chr>, entry <chr>, exit_only <chr>, vending <chr>,
    ## #   staffing <chr>, staff_hours <chr>, ada <lgl>, ada_notes <chr>,
    ## #   free_crossover <lgl>, north_south_street <chr>, east_west_street <chr>,
    ## #   corner <chr>, entrance_latitude <dbl>, entrance_longitude <dbl>,
    ## #   station_location <chr>, entrance_location <chr>, and abbreviated variable …
…
Now, we want to retain the following variables: \* line \* station name
\* station latitude / longitude \* routes served \* entry \* vending \*
entrance type \* ADA compliance

``` r
select(NYC_transit, line, station_name, station_latitude, station_longitude, route1, route2, route3, route4, route5, route6, route7, route8, route9, route10, route11, entry, vending, entrance_type, ada, ada_notes)
```

    ## # A tibble: 1,868 × 20
    ##    line     station_…¹ stati…² stati…³ route1 route2 route3 route4 route5 route6
    ##    <chr>    <chr>        <dbl>   <dbl> <chr>  <chr>  <chr>  <chr>  <chr>  <chr> 
    ##  1 4 Avenue 25th St       40.7   -74.0 R      <NA>   <NA>   <NA>   <NA>   <NA>  
    ##  2 4 Avenue 25th St       40.7   -74.0 R      <NA>   <NA>   <NA>   <NA>   <NA>  
    ##  3 4 Avenue 36th St       40.7   -74.0 N      R      <NA>   <NA>   <NA>   <NA>  
    ##  4 4 Avenue 36th St       40.7   -74.0 N      R      <NA>   <NA>   <NA>   <NA>  
    ##  5 4 Avenue 36th St       40.7   -74.0 N      R      <NA>   <NA>   <NA>   <NA>  
    ##  6 4 Avenue 45th St       40.6   -74.0 R      <NA>   <NA>   <NA>   <NA>   <NA>  
    ##  7 4 Avenue 45th St       40.6   -74.0 R      <NA>   <NA>   <NA>   <NA>   <NA>  
    ##  8 4 Avenue 45th St       40.6   -74.0 R      <NA>   <NA>   <NA>   <NA>   <NA>  
    ##  9 4 Avenue 45th St       40.6   -74.0 R      <NA>   <NA>   <NA>   <NA>   <NA>  
    ## 10 4 Avenue 53rd St       40.6   -74.0 R      <NA>   <NA>   <NA>   <NA>   <NA>  
    ## # … with 1,858 more rows, 10 more variables: route7 <chr>, route8 <dbl>,
    ## #   route9 <dbl>, route10 <dbl>, route11 <dbl>, entry <chr>, vending <chr>,
    ## #   entrance_type <chr>, ada <lgl>, ada_notes <chr>, and abbreviated variable
    ## #   names ¹​station_name, ²​station_latitude, ³​station_longitude
